100
101
1011
1013
1016
1017
1019
1020
1023
1026
1027
1028
1029
103
104
1043
1044
1045
1046
1058
1059
106
1065
107
1074
1081
1082
1095
1097
110
1112
1114
1128
1139
1140
1142
1144
1146
1147
1157
1158
1161
1162
1163
1164
1180
1185
1186
1203
1218
1246
1253
126
1262
1305
131
1356
1374
1380
141
1420
1463
152
153
154
1546
1557
157
158
1581
160
1604
1632
1659
166
1662
167
169
170
171
173
1732
1738
175
177
178
1807
182
1831
1832
1867
1868
187
188
189
1893
1898
190
191
193
194
1958
196
1985
2
200
201
2020
203
204
2045
2047
2068
207
2082
209
2096
211
212
214
215
2169
222
2227
2271
2302
230913
2314
233
2353
2363
2371
237166
2372
24
2411
2418
242
2425
2441
2446
2447
2473
2477
2481
249
2507
251
2512
2521
2535
2548
256
2562
258
2580
2590
2592
2596
2614
2618
2619
2626
2631
264
2642
2643
2656
2668
267
2672
2675
268
2684
2693
2700
2723
2747
275
276
2764
279
280
2801
2828
2844
285
2860
2862
2867
2875
2878
2879
2890
2894
2907
2915
2928
295
2951
2954
2958
2991
3006
3011
303
3032
304
3057
3064
3066
3084
3101
3106
3141
3144
3160
3164
317
3173
3175
3192
3195
3196
3206
3208
3214
3227
3243
3246
3261
3276
3292
3297
3328
3336
3343
3350
3353
3358
3360
3364
338
3402
3410
3418
3427
3428
3439
3442
3455
3472
3475
3477
3497
3498
3508
3515
3542
3550
3551
3553
359
3598
3601
3618
3621
363
3633
3637
3640
3642
3644
3670
3672
3684
3691
3695
3712
3738
3740
3745
3772
3777
3778
3802
3808
3809
3811
3827
3840
3858
3865
3868
3888
3937
3938
3939
3951
3980
40
4015
4016
4026
4055
4057
4095
4145
4151
4164
4183
4191
4233
4245
4248
4313
4358
4364
4435
4458
4466
4470
4471
4502
4516
4525
4537
4546
4551
4552
4562
4563
4572
458
4583
4585
4588
4590
4593
4597
4605
4636
4669
471
4714
4721
473
475
4753
477
4775
4778
481
486
487
488
491
493
494
495
4971
4973
4976
499692
499696
499700
499702
499708
499793
499796
499797
499803
499811
499844
499891
499919
499956
499961
499978
499981
5
500
500009
500037
500084
500087
5004
502993
503006
503724
503730
503766
504641
505295
505771
505797
505806
505826
505828
506
5068
5072
508
509
510
511
5111
512
5122
5123
513
5138
5139
5143
515
5152
5153
516
5165
5166
5167
5169
517
5170
5171
5172
5173
5174
5181
519
520
521
523
524
525
5250
526
527
528
5282
53
5308
5319
5322
533
534
5344
5362
537
5378
538
5385
5408
5410
542
5423
5429
5443
5466
5467
5488
5489
549
5490
5507
5513
5514
553
5533
5558
5559
5564
5566
5567
5591
5592
5598
5601
5608
5613
5620
5631
5650
5663
567
5671
569
5690
5697
5702
576
577
5778
5830
5833
586
5869
5870
5873
588
5886
5892
5909
5911
592
594
5941
5965
5966
5971
599
6006
6019
6049
606
6065
6066
608
611
613
6170
6171
618
619
6205
6206
623
6238
6250
6252
6262
6275
628
6280
6281
6282
6285
6286
6287
6288
6291
6301
6302
6303
6328
636
6363
6368
638
6441
649
6490
6499
650
6511
6519
653
654
6549
6551
6552
6553
658
662
666
667
668
669
672
6727
673
674
6747
675
6764
6779
6828
687
6876
6885
6886
6908
6912
6913
6928
6929
696
6972
6973
6979
7063
717
7190
7208
7211
7220
7223
7243
7248
726
728
7316
7324
733
734
7362
7382
7400
7404
744
748
7495
7499
7522
7539
765
8020
8026
8111
8301
8309
839
8445
8522
8526
886
9
913
93
930
932
934
939
941
960
961
981
982
988
990
992
993
999
